Nivel_1/Nivel_2-Timer_InControl/Timer_InControl_TB.vcd
$date
	Sun Apr 23 15:54:04 2023
$end
$version
	Icarus Verilog
$end
$timescale
	1s
$end
$scope module Timer_InControl_TB $end
$var wire 1 ! pgt_1Hz $end
$var wire 1 " loadn $end
$var wire 4 # dados [3:0] $end
$var reg 1 $ Nenable $end
$var reg 1 % clock $end
$var reg 10 & keypad [9:0] $end
$scope module dut $end
$var wire 1 % clock_100Hz $end
$var wire 1 $ enablen $end
$var wire 1 ' keypad0 $end
$var wire 1 ( keypad1 $end
$var wire 1 ) keypad2 $end
$var wire 1 * keypad3 $end
$var wire 1 + keypad4 $end
$var wire 1 , keypad5 $end
$var wire 1 - keypad6 $end
$var wire 1 . keypad7 $end
$var wire 1 / keypad8 $end
$var wire 1 0 keypad9 $end
$var wire 1 ! pgt_1Hz $end
$var wire 1 " loadn $end
$var wire 1 1 delay_valor $end
$var wire 1 2 Hz1 $end
$var wire 4 3 D [3:0] $end
$scope module delay_counter $end
$var wire 1 % clock $end
$var wire 1 " clear $end
$var reg 1 1 saida $end
$var reg 3 4 valor [2:0] $end
$upscope $end
$scope module divide_100 $end
$var wire 1 % clock $end
$var reg 1 2 tic $end
$var reg 7 5 valor [6:0] $end
$upscope $end
$scope module mux2to1 $end
$var wire 1 1 i0 $end
$var wire 1 2 i1 $end
$var wire 1 $ select $end
$var wire 1 ! out $end
$upscope $end
$scope module prority_encoder $end
$var wire 1 $ enablen $end
$var wire 1 ' keypad0 $end
$var wire 1 ( keypad1 $end
$var wire 1 ) keypad2 $end
$var wire 1 * keypad3 $end
$var wire 1 + keypad4 $end
$var wire 1 , keypad5 $end
$var wire 1 - keypad6 $end
$var wire 1 . keypad7 $end
$var wire 1 / keypad8 $end
$var wire 1 0 keypad9 $end
$var reg 4 6 BCD_out [3:0] $end
$var reg 1 " valid $end
$upscope $end
$upscope $end
$upscope $end
$enddefinitions $end
$comment Show the parameter values. $end
$dumpall
$end
#0
$dumpvars
b1111 6
b0 5
b0 4
b1111 3
x2
01
00
0/
0.
0-
0,
0+
0*
0)
0(
0'
b0 &
0%
0$
b1111 #
1"
0!
$end
#1
02
b1 5
1%
#2
0%
#3
b10 5
0"
b111 #
b111 3
b111 6
1.
b10000000 &
1%
#4
0%
#5
b1 4
b11 5
1%
#6
0%
#7
b10 4
b100 5
1%
#8
0%
#9
b11 4
b101 5
1%
#10
0%
#11
1!
11
b100 4
b110 5
1%
#12
0%
#13
b101 4
b111 5
1%
#14
0%
#15
b110 4
b1000 5
1%
#16
0%
#17
01
b0 4
b1001 5
0!
1"
1$
1%
#18
0%
#19
b1010 5
1%
